Ploting regression models, marginal effects
…
ggpredict object

When you apply ggpredict, it produces this output which looks like an array. However, there is a standard data frame in the background - of course, this is tidyverse, right. To force it shows its true face, you just apply a function such as as_tibble or View and magic happens.

ggpredict(m3, terms = c("dem_index", "postsoviet")) %>% as_tibble()

## # A tibble: 72 x 6
##        x predicted std.error conf.low conf.high group
##    <dbl>     <dbl>     <dbl>    <dbl>     <dbl> <fct>
##  1  4.37      75.6     1.18      73.3      77.9 no   
##  2  4.37      78.8     1.90      75.0      82.5 yes  
##  3  4.98      77.1     0.857     75.4      78.8 no   
##  4  4.98      77.3     1.13      75.1      79.6 yes  
##  5  5.74      78.7     0.618     77.5      79.9 no   
##  6  5.74      76.4     0.551     75.3      77.5 yes  
##  7  5.87      79.0     0.594     77.8      80.1 no   
##  8  5.87      76.3     0.499     75.3      77.3 yes  
##  9  5.98      79.2     0.577     78.0      80.3 no   
## 10  5.98      76.3     0.466     75.3      77.2 yes  
## # ... with 62 more rows
…
